%YAML 1.1
%TAG !u! tag:unity3d.com,2011:
--- !u!1 &100000
GameObject:
  m_ObjectHideFlags: 0
  m_PrefabParentObject: {fileID: 0}
  m_PrefabInternal: {fileID: 100100000}
  serializedVersion: 4
  m_Component:
  - 4: {fileID: 400000}
  - 114: {fileID: 11400000}
  m_Layer: 0
  m_Name: Fantasy Font - Normal
  m_TagString: Untagged
  m_Icon: {fileID: 0}
  m_NavMeshLayer: 0
  m_StaticEditorFlags: 0
  m_IsActive: 1
--- !u!1002 &100001
EditorExtensionImpl:
  serializedVersion: 6
--- !u!4 &400000
Transform:
  m_ObjectHideFlags: 1
  m_PrefabParentObject: {fileID: 0}
  m_PrefabInternal: {fileID: 100100000}
  m_GameObject: {fileID: 100000}
  m_LocalRotation: {x: 0, y: 0, z: 0, w: 1}
  m_LocalPosition: {x: 0, y: 0, z: 0}
  m_LocalScale: {x: 1, y: 1, z: 1}
  m_Children: []
  m_Father: {fileID: 0}
--- !u!1002 &400001
EditorExtensionImpl:
  serializedVersion: 6
--- !u!114 &11400000
MonoBehaviour:
  m_ObjectHideFlags: 1
  m_PrefabParentObject: {fileID: 0}
  m_PrefabInternal: {fileID: 100100000}
  m_GameObject: {fileID: 100000}
  m_Enabled: 1
  m_EditorHideFlags: 0
  m_Script: {fileID: 11500000, guid: 0b4eb3a400afab046abb8471a9d746d6, type: 3}
  m_Name: 
  mMat: {fileID: 2100000, guid: e7ef61ebb5c25394c8706a7ea658349f, type: 2}
  mUVRect:
    serializedVersion: 2
    x: 0
    y: .5
    width: .5
    height: .5
  mFont:
    mGlyphs: []
    mSize: 28
    mBase: 20
    mWidth: 256
    mHeight: 256
    mSpriteName: Fantasy Font
    mSaved:
    - index: 0
      x: 0
      y: 0
      width: 0
      height: 0
      offsetX: 0
      offsetY: 0
      advance: 0
      channel: 0
      kerning: 
    - index: 1
      x: 0
      y: 0
      width: 0
      height: 0
      offsetX: 0
      offsetY: 0
      advance: 0
      channel: 0
      kerning: 
    - index: 2
      x: 0
      y: 0
      width: 0
      height: 0
      offsetX: 0
      offsetY: 0
      advance: 0
      channel: 0
      kerning: 
    - index: 3
      x: 0
      y: 0
      width: 0
      height: 0
      offsetX: 0
      offsetY: 0
      advance: 0
      channel: 0
      kerning: 
    - index: 4
      x: 0
      y: 0
      width: 0
      height: 0
      offsetX: 0
      offsetY: 0
      advance: 0
      channel: 0
      kerning: 
    - index: 5
      x: 0
      y: 0
      width: 0
      height: 0
      offsetX: 0
      offsetY: 0
      advance: 0
      channel: 0
      kerning: 
    - index: 6
      x: 0
      y: 0
      width: 0
      height: 0
      offsetX: 0
      offsetY: 0
      advance: 0
      channel: 0
      kerning: 
    - index: 7
      x: 0
      y: 0
      width: 0
      height: 0
      offsetX: 0
      offsetY: 0
      advance: 0
      channel: 0
      kerning: 
    - index: 8
      x: 0
      y: 0
      width: 0
      height: 0
      offsetX: 0
      offsetY: 0
      advance: 0
      channel: 0
      kerning: 
    - index: 9
      x: 0
      y: 0
      width: 0
      height: 0
      offsetX: 0
      offsetY: 0
      advance: 0
      channel: 0
      kerning: 
    - index: 10
      x: 0
      y: 0
      width: 0
      height: 0
      offsetX: 0
      offsetY: 0
      advance: 0
      channel: 0
      kerning: 
    - index: 11
      x: 0
      y: 0
      width: 0
      height: 0
      offsetX: 0
      offsetY: 0
      advance: 0
      channel: 0
      kerning: 
    - index: 12
      x: 0
      y: 0
      width: 0
      height: 0
      offsetX: 0
      offsetY: 0
      advance: 0
      channel: 0
      kerning: 
    - index: 13
      x: 0
      y: 0
      width: 0
      height: 0
      offsetX: 0
      offsetY: 0
      advance: 0
      channel: 0
      kerning: 
    - index: 14
      x: 0
      y: 0
      width: 0
      height: 0
      offsetX: 0
      offsetY: 0
      advance: 0
      channel: 0
      kerning: 
    - index: 15
      x: 0
      y: 0
      width: 0
      height: 0
      offsetX: 0
      offsetY: 0
      advance: 0
      channel: 0
      kerning: 
    - index: 16
      x: 0
      y: 0
      width: 0
      height: 0
      offsetX: 0
      offsetY: 0
      advance: 0
      channel: 0
      kerning: 
    - index: 17
      x: 0
      y: 0
      width: 0
      height: 0
      offsetX: 0
      offsetY: 0
      advance: 0
      channel: 0
      kerning: 
    - index: 18
      x: 0
      y: 0
      width: 0
      height: 0
      offsetX: 0
      offsetY: 0
      advance: 0
      channel: 0
      kerning: 
    - index: 19
      x: 0
      y: 0
      width: 0
      height: 0
      offsetX: 0
      offsetY: 0
      advance: 0
      channel: 0
      kerning: 
    - index: 20
      x: 0
      y: 0
      width: 0
      height: 0
      offsetX: 0
      offsetY: 0
      advance: 0
      channel: 0
      kerning: 
    - index: 21
      x: 0
      y: 0
      width: 0
      height: 0
      offsetX: 0
      offsetY: 0
      advance: 0
      channel: 0
      kerning: 
    - index: 22
      x: 0
      y: 0
      width: 0
      height: 0
      offsetX: 0
      offsetY: 0
      advance: 0
      channel: 0
      kerning: 
    - index: 23
      x: 0
      y: 0
      width: 0
      height: 0
      offsetX: 0
      offsetY: 0
      advance: 0
      channel: 0
      kerning: 
    - index: 24
      x: 0
      y: 0
      width: 0
      height: 0
      offsetX: 0
      offsetY: 0
      advance: 0
      channel: 0
      kerning: 
    - index: 25
      x: 0
      y: 0
      width: 0
      height: 0
      offsetX: 0
      offsetY: 0
      advance: 0
      channel: 0
      kerning: 
    - index: 26
      x: 0
      y: 0
      width: 0
      height: 0
      offsetX: 0
      offsetY: 0
      advance: 0
      channel: 0
      kerning: 
    - index: 27
      x: 0
      y: 0
      width: 0
      height: 0
      offsetX: 0
      offsetY: 0
      advance: 0
      channel: 0
      kerning: 
    - index: 28
      x: 0
      y: 0
      width: 0
      height: 0
      offsetX: 0
      offsetY: 0
      advance: 0
      channel: 0
      kerning: 
    - index: 29
      x: 0
      y: 0
      width: 0
      height: 0
      offsetX: 0
      offsetY: 0
      advance: 0
      channel: 0
      kerning: 
    - index: 30
      x: 0
      y: 0
      width: 0
      height: 0
      offsetX: 0
      offsetY: 0
      advance: 0
      channel: 0
      kerning: 
    - index: 31
      x: 0
      y: 0
      width: 0
      height: 0
      offsetX: 0
      offsetY: 0
      advance: 0
      channel: 0
      kerning: 
    - index: 32
      x: 251
      y: 104
      width: 4
      height: 4
      offsetX: -1
      offsetY: 19
      advance: 4
      channel: 0
      kerning: 
    - index: 33
      x: 150
      y: 68
      width: 9
      height: 19
      offsetX: -1
      offsetY: 4
      advance: 5
      channel: 0
      kerning: 
    - index: 34
      x: 32
      y: 198
      width: 13
      height: 10
      offsetX: 0
      offsetY: 6
      advance: 10
      channel: 0
      kerning: 
    - index: 35
      x: 203
      y: 66
      width: 18
      height: 18
      offsetX: -1
      offsetY: 5
      advance: 14
      channel: 0
      kerning: 
    - index: 36
      x: 72
      y: 70
      width: 11
      height: 19
      offsetX: 0
      offsetY: 5
      advance: 9
      channel: 0
      kerning: 
    - index: 37
      x: 160
      y: 68
      width: 22
      height: 18
      offsetX: 0
      offsetY: 5
      advance: 19
      channel: 0
      kerning: 
    - index: 38
      x: 72
      y: 128
      width: 17
      height: 17
      offsetX: -1
      offsetY: 6
      advance: 14
      channel: 0
      kerning: 
    - index: 39
      x: 77
      y: 197
      width: 8
      height: 10
      offsetX: 0
      offsetY: 6
      advance: 5
      channel: 0
      kerning: 
    - index: 40
      x: 96
      y: 70
      width: 11
      height: 19
      offsetX: -1
      offsetY: 5
      advance: 7
      channel: 0
      kerning: 
    - index: 41
      x: 108
      y: 69
      width: 11
      height: 19
      offsetX: -1
      offsetY: 5
      advance: 7
      channel: 0
      kerning: 
    - index: 42
      x: 58
      y: 183
      width: 13
      height: 14
      offsetX: 0
      offsetY: 9
      advance: 11
      channel: 0
      kerning: 
    - index: 43
      x: 8
      y: 198
      width: 11
      height: 11
      offsetX: 0
      offsetY: 9
      advance: 8
      channel: 0
      kerning: 
    - index: 44
      x: 98
      y: 196
      width: 8
      height: 9
      offsetX: -1
      offsetY: 16
      advance: 5
      channel: 0
      kerning: 
    - index: 45
      x: 152
      y: 194
      width: 12
      height: 7
      offsetX: -1
      offsetY: 11
      advance: 8
      channel: 0
      kerning: 
    - index: 46
      x: 129
      y: 195
      width: 8
      height: 8
      offsetX: -1
      offsetY: 15
      advance: 5
      channel: 0
      kerning: 
    - index: 47
      x: 144
      y: 108
      width: 12
      height: 18
      offsetX: -1
      offsetY: 5
      advance: 8
      channel: 0
      kerning: 
    - index: 48
      x: 19
      y: 92
      width: 17
      height: 18
      offsetX: 0
      offsetY: 5
      advance: 14
      channel: 0
      kerning: 
    - index: 49
      x: 205
      y: 143
      width: 8
      height: 17
      offsetX: 0
      offsetY: 6
      advance: 6
      channel: 0
      kerning: 
    - index: 50
      x: 135
      y: 146
      width: 13
      height: 17
      offsetX: -1
      offsetY: 5
      advance: 10
      channel: 0
      kerning: 
    - index: 51
      x: 88
      y: 109
      width: 13
      height: 18
      offsetX: -1
      offsetY: 5
      advance: 10
      channel: 0
      kerning: 
    - index: 52
      x: 105
      y: 90
      width: 15
      height: 18
      offsetX: -1
      offsetY: 5
      advance: 12
      channel: 0
      kerning: 
    - index: 53
      x: 74
      y: 109
      width: 13
      height: 18
      offsetX: -1
      offsetY: 5
      advance: 9
      channel: 0
      kerning: 
    - index: 54
      x: 169
      y: 87
      width: 14
      height: 18
      offsetX: 0
      offsetY: 5
      advance: 11
      channel: 0
      kerning: 
    - index: 55
      x: 184
      y: 86
      width: 14
      height: 18
      offsetX: -1
      offsetY: 6
      advance: 9
      channel: 0
      kerning: 
    - index: 56
      x: 60
      y: 109
      width: 13
      height: 18
      offsetX: 0
      offsetY: 5
      advance: 11
      channel: 0
      kerning: 
    - index: 57
      x: 30
      y: 111
      width: 14
      height: 18
      offsetX: 0
      offsetY: 5
      advance: 12
      channel: 0
      kerning: 
    - index: 58
      x: 148
      y: 179
      width: 8
      height: 14
      offsetX: 0
      offsetY: 9
      advance: 6
      channel: 0
      kerning: 
    - index: 59
      x: 214
      y: 141
      width: 8
      height: 17
      offsetX: 0
      offsetY: 8
      advance: 6
      channel: 0
      kerning: 
    - index: 60
      x: 99
      y: 181
      width: 12
      height: 14
      offsetX: 0
      offsetY: 9
      advance: 9
      channel: 0
      kerning: 
    - index: 61
      x: 46
      y: 198
      width: 11
      height: 10
      offsetX: 0
      offsetY: 11
      advance: 9
      channel: 0
      kerning: 
    - index: 62
      x: 86
      y: 181
      width: 12
      height: 14
      offsetX: 0
      offsetY: 9
      advance: 9
      channel: 0
      kerning: 
    - index: 63
      x: 107
      y: 146
      width: 13
      height: 17
      offsetX: 0
      offsetY: 6
      advance: 10
      channel: 0
      kerning: 
    - index: 64
      x: 222
      y: 66
      width: 18
      height: 18
      offsetX: 0
      offsetY: 6
      advance: 16
      channel: 0
      kerning: 
    - index: 65
      x: 142
      y: 127
      width: 16
      height: 17
      offsetX: -1
      offsetY: 6
      advance: 12
      channel: 0
      kerning: 
    - index: 66
      x: 175
      y: 125
      width: 15
      height: 17
      offsetX: 0
      offsetY: 6
      advance: 12
      channel: 0
      kerning: 
    - index: 67
      x: 64
      y: 165
      width: 14
      height: 16
      offsetX: 0
      offsetY: 6
      advance: 11
      channel: 0
      kerning: 
    - index: 68
      x: 125
      y: 128
      width: 16
      height: 17
      offsetX: 0
      offsetY: 6
      advance: 13
      channel: 0
      kerning: 
    - index: 69
      x: 77
      y: 146
      width: 14
      height: 17
      offsetX: 0
      offsetY: 6
      advance: 10
      channel: 0
      kerning: 
    - index: 70
      x: 92
      y: 146
      width: 14
      height: 17
      offsetX: 0
      offsetY: 6
      advance: 11
      channel: 0
      kerning: 
    - index: 71
      x: 16
      y: 166
      width: 15
      height: 16
      offsetX: 0
      offsetY: 6
      advance: 13
      channel: 0
      kerning: 
    - index: 72
      x: 0
      y: 130
      width: 17
      height: 17
      offsetX: -1
      offsetY: 6
      advance: 13
      channel: 0
      kerning: 
    - index: 73
      x: 195
      y: 143
      width: 9
      height: 17
      offsetX: 0
      offsetY: 6
      advance: 7
      channel: 0
      kerning: 
    - index: 74
      x: 184
      y: 143
      width: 10
      height: 17
      offsetX: -1
      offsetY: 6
      advance: 7
      channel: 0
      kerning: 
    - index: 75
      x: 191
      y: 125
      width: 15
      height: 17
      offsetX: 0
      offsetY: 6
      advance: 12
      channel: 0
      kerning: 
    - index: 76
      x: 79
      y: 164
      width: 13
      height: 16
      offsetX: -1
      offsetY: 6
      advance: 9
      channel: 0
      kerning: 
    - index: 77
      x: 232
      y: 104
      width: 18
      height: 17
      offsetX: -1
      offsetY: 6
      advance: 15
      channel: 0
      kerning: 
    - index: 78
      x: 159
      y: 126
      width: 15
      height: 17
      offsetX: 0
      offsetY: 6
      advance: 13
      channel: 0
      kerning: 
    - index: 79
      x: 36
      y: 130
      width: 17
      height: 17
      offsetX: 0
      offsetY: 5
      advance: 14
      channel: 0
      kerning: 
    - index: 80
      x: 207
      y: 123
      width: 15
      height: 17
      offsetX: -1
      offsetY: 6
      advance: 12
      channel: 0
      kerning: 
    - index: 81
      x: 55
      y: 90
      width: 17
      height: 18
      offsetX: 0
      offsetY: 5
      advance: 14
      channel: 0
      kerning: 
    - index: 82
      x: 108
      y: 128
      width: 16
      height: 17
      offsetX: -1
      offsetY: 6
      advance: 13
      channel: 0
      kerning: 
    - index: 83
      x: 93
      y: 164
      width: 11
      height: 16
      offsetX: 0
      offsetY: 6
      advance: 10
      channel: 0
      kerning: 
    - index: 84
      x: 223
      y: 123
      width: 15
      height: 17
      offsetX: -1
      offsetY: 6
      advance: 10
      channel: 0
      kerning: 
    - index: 85
      x: 48
      y: 166
      width: 15
      height: 16
      offsetX: 0
      offsetY: 6
      advance: 12
      channel: 0
      kerning: 
    - index: 86
      x: 239
      y: 122
      width: 15
      height: 17
      offsetX: 0
      offsetY: 6
      advance: 11
      channel: 0
      kerning: 
    - index: 87
      x: 212
      y: 105
      width: 19
      height: 17
      offsetX: 0
      offsetY: 6
      advance: 16
      channel: 0
      kerning: 
    - index: 88
      x: 0
      y: 148
      width: 15
      height: 17
      offsetX: -1
      offsetY: 6
      advance: 11
      channel: 0
      kerning: 
    - index: 89
      x: 16
      y: 148
      width: 15
      height: 17
      offsetX: -1
      offsetY: 6
      advance: 10
      channel: 0
      kerning: 
    - index: 90
      x: 0
      y: 166
      width: 15
      height: 16
      offsetX: -1
      offsetY: 6
      advance: 11
      channel: 0
      kerning: 
    - index: 91
      x: 173
      y: 144
      width: 10
      height: 17
      offsetX: 0
      offsetY: 6
      advance: 7
      channel: 0
      kerning: 
    - index: 92
      x: 157
      y: 107
      width: 12
      height: 18
      offsetX: 0
      offsetY: 5
      advance: 10
      channel: 0
      kerning: 
    - index: 93
      x: 162
      y: 144
      width: 10
      height: 17
      offsetX: -1
      offsetY: 6
      advance: 7
      channel: 0
      kerning: 
    - index: 94
      x: 194
      y: 176
      width: 13
      height: 12
      offsetX: -1
      offsetY: 10
      advance: 10
      channel: 0
      kerning: 
    - index: 95
      x: 174
      y: 191
      width: 12
      height: 6
      offsetX: -1
      offsetY: 17
      advance: 9
      channel: 0
      kerning: 
    - index: 96
      x: 68
      y: 198
      width: 8
      height: 10
      offsetX: -1
      offsetY: 2
      advance: 5
      channel: 0
      kerning: 
    - index: 97
      x: 240
      y: 157
      width: 14
      height: 14
      offsetX: -1
      offsetY: 9
      advance: 11
      channel: 0
      kerning: 
    - index: 98
      x: 241
      y: 66
      width: 14
      height: 18
      offsetX: 0
      offsetY: 5
      advance: 12
      channel: 0
      kerning: 
    - index: 99
      x: 30
      y: 183
      width: 13
      height: 14
      offsetX: -1
      offsetY: 9
      advance: 9
      channel: 0
      kerning: 
    - index: 100
      x: 121
      y: 89
      width: 15
      height: 18
      offsetX: -1
      offsetY: 5
      advance: 12
      channel: 0
      kerning: 
    - index: 101
      x: 44
      y: 183
      width: 13
      height: 14
      offsetX: -1
      offsetY: 9
      advance: 10
      channel: 0
      kerning: 
    - index: 102
      x: 0
      y: 72
      width: 14
      height: 19
      offsetX: -1
      offsetY: 4
      advance: 8
      channel: 0
      kerning: 
    - index: 103
      x: 137
      y: 89
      width: 15
      height: 18
      offsetX: -1
      offsetY: 9
      advance: 11
      channel: 0
      kerning: 
    - index: 104
      x: 199
      y: 86
      width: 14
      height: 18
      offsetX: 0
      offsetY: 5
      advance: 12
      channel: 0
      kerning: 
    - index: 105
      x: 140
      y: 68
      width: 9
      height: 19
      offsetX: -1
      offsetY: 4
      advance: 5
      channel: 0
      kerning: 
    - index: 106
      x: 114
      y: 47
      width: 12
      height: 21
      offsetX: -4
      offsetY: 4
      advance: 5
      channel: 0
      kerning: 
    - index: 107
      x: 0
      y: 111
      width: 14
      height: 18
      offsetX: 0
      offsetY: 5
      advance: 11
      channel: 0
      kerning: 
    - index: 108
      x: 183
      y: 106
      width: 8
      height: 18
      offsetX: 0
      offsetY: 5
      advance: 5
      channel: 0
      kerning: 
    - index: 109
      x: 105
      y: 164
      width: 20
      height: 15
      offsetX: -1
      offsetY: 8
      advance: 17
      channel: 0
      kerning: 
    - index: 110
      x: 126
      y: 164
      width: 15
      height: 15
      offsetX: -1
      offsetY: 8
      advance: 12
      channel: 0
      kerning: 
    - index: 111
      x: 224
      y: 158
      width: 15
      height: 14
      offsetX: -1
      offsetY: 9
      advance: 12
      channel: 0
      kerning: 
    - index: 112
      x: 204
      y: 46
      width: 15
      height: 19
      offsetX: -1
      offsetY: 8
      advance: 12
      channel: 0
      kerning: 
    - index: 113
      x: 89
      y: 90
      width: 15
      height: 18
      offsetX: -1
      offsetY: 9
      advance: 11
      channel: 0
      kerning: 
    - index: 114
      x: 125
      y: 180
      width: 11
      height: 14
      offsetX: 0
      offsetY: 9
      advance: 8
      channel: 0
      kerning: 
    - index: 115
      x: 137
      y: 180
      width: 10
      height: 14
      offsetX: 0
      offsetY: 9
      advance: 8
      channel: 0
      kerning: 
    - index: 116
      x: 149
      y: 145
      width: 12
      height: 17
      offsetX: -1
      offsetY: 6
      advance: 8
      channel: 0
      kerning: 
    - index: 117
      x: 15
      y: 183
      width: 14
      height: 14
      offsetX: 0
      offsetY: 9
      advance: 11
      channel: 0
      kerning: 
    - index: 118
      x: 0
      y: 183
      width: 14
      height: 14
      offsetX: -1
      offsetY: 9
      advance: 10
      channel: 0
      kerning: 
    - index: 119
      x: 205
      y: 161
      width: 18
      height: 14
      offsetX: 0
      offsetY: 9
      advance: 15
      channel: 0
      kerning: 
    - index: 120
      x: 72
      y: 182
      width: 13
      height: 14
      offsetX: -1
      offsetY: 9
      advance: 9
      channel: 0
      kerning: 
    - index: 121
      x: 130
      y: 108
      width: 13
      height: 18
      offsetX: 0
      offsetY: 9
      advance: 10
      channel: 0
      kerning: 
    - index: 122
      x: 171
      y: 177
      width: 12
      height: 13
      offsetX: -1
      offsetY: 9
      advance: 9
      channel: 0
      kerning: 
    - index: 123
      x: 59
      y: 70
      width: 12
      height: 19
      offsetX: -1
      offsetY: 5
      advance: 7
      channel: 0
      kerning: 
    - index: 124
      x: 244
      y: 85
      width: 8
      height: 18
      offsetX: 0
      offsetY: 5
      advance: 5
      channel: 0
      kerning: 
    - index: 125
      x: 84
      y: 70
      width: 11
      height: 19
      offsetX: -1
      offsetY: 5
      advance: 7
      channel: 0
      kerning: 
    - index: 126
      x: 116
      y: 195
      width: 12
      height: 8
      offsetX: 0
      offsetY: 10
      advance: 10
      channel: 0
      kerning: 
    - index: 127
      x: 0
      y: 0
      width: 0
      height: 0
      offsetX: 0
      offsetY: 0
      advance: 0
      channel: 0
      kerning: 
    - index: 128
      x: 0
      y: 0
      width: 0
      height: 0
      offsetX: 0
      offsetY: 0
      advance: 0
      channel: 0
      kerning: 
    - index: 129
      x: 0
      y: 0
      width: 0
      height: 0
      offsetX: 0
      offsetY: 0
      advance: 0
      channel: 0
      kerning: 
    - index: 130
      x: 0
      y: 0
      width: 0
      height: 0
      offsetX: 0
      offsetY: 0
      advance: 0
      channel: 0
      kerning: 
    - index: 131
      x: 0
      y: 0
      width: 0
      height: 0
      offsetX: 0
      offsetY: 0
      advance: 0
      channel: 0
      kerning: 
    - index: 132
      x: 0
      y: 0
      width: 0
      height: 0
      offsetX: 0
      offsetY: 0
      advance: 0
      channel: 0
      kerning: 
    - index: 133
      x: 0
      y: 0
      width: 0
      height: 0
      offsetX: 0
      offsetY: 0
      advance: 0
      channel: 0
      kerning: 
    - index: 134
      x: 0
      y: 0
      width: 0
      height: 0
      offsetX: 0
      offsetY: 0
      advance: 0
      channel: 0
      kerning: 
    - index: 135
      x: 0
      y: 0
      width: 0
      height: 0
      offsetX: 0
      offsetY: 0
      advance: 0
      channel: 0
      kerning: 
    - index: 136
      x: 0
      y: 0
      width: 0
      height: 0
      offsetX: 0
      offsetY: 0
      advance: 0
      channel: 0
      kerning: 
    - index: 137
      x: 0
      y: 0
      width: 0
      height: 0
      offsetX: 0
      offsetY: 0
      advance: 0
      channel: 0
      kerning: 
    - index: 138
      x: 0
      y: 0
      width: 0
      height: 0
      offsetX: 0
      offsetY: 0
      advance: 0
      channel: 0
      kerning: 
    - index: 139
      x: 0
      y: 0
      width: 0
      height: 0
      offsetX: 0
      offsetY: 0
      advance: 0
      channel: 0
      kerning: 
    - index: 140
      x: 0
      y: 0
      width: 0
      height: 0
      offsetX: 0
      offsetY: 0
      advance: 0
      channel: 0
      kerning: 
    - index: 141
      x: 0
      y: 0
      width: 0
      height: 0
      offsetX: 0
      offsetY: 0
      advance: 0
      channel: 0
      kerning: 
    - index: 142
      x: 0
      y: 0
      width: 0
      height: 0
      offsetX: 0
      offsetY: 0
      advance: 0
      channel: 0
      kerning: 
    - index: 143
      x: 0
      y: 0
      width: 0
      height: 0
      offsetX: 0
      offsetY: 0
      advance: 0
      channel: 0
      kerning: 
    - index: 144
      x: 0
      y: 0
      width: 0
      height: 0
      offsetX: 0
      offsetY: 0
      advance: 0
      channel: 0
      kerning: 
    - index: 145
      x: 0
      y: 0
      width: 0
      height: 0
      offsetX: 0
      offsetY: 0
      advance: 0
      channel: 0
      kerning: 
    - index: 146
      x: 0
      y: 0
      width: 0
      height: 0
      offsetX: 0
      offsetY: 0
      advance: 0
      channel: 0
      kerning: 
    - index: 147
      x: 0
      y: 0
      width: 0
      height: 0
      offsetX: 0
      offsetY: 0
      advance: 0
      channel: 0
      kerning: 
    - index: 148
      x: 0
      y: 0
      width: 0
      height: 0
      offsetX: 0
      offsetY: 0
      advance: 0
      channel: 0
      kerning: 
    - index: 149
      x: 0
      y: 0
      width: 0
      height: 0
      offsetX: 0
      offsetY: 0
      advance: 0
      channel: 0
      kerning: 
    - index: 150
      x: 0
      y: 0
      width: 0
      height: 0
      offsetX: 0
      offsetY: 0
      advance: 0
      channel: 0
      kerning: 
    - index: 151
      x: 0
      y: 0
      width: 0
      height: 0
      offsetX: 0
      offsetY: 0
      advance: 0
      channel: 0
      kerning: 
    - index: 152
      x: 0
      y: 0
      width: 0
      height: 0
      offsetX: 0
      offsetY: 0
      advance: 0
      channel: 0
      kerning: 
    - index: 153
      x: 0
      y: 0
      width: 0
      height: 0
      offsetX: 0
      offsetY: 0
      advance: 0
      channel: 0
      kerning: 
    - index: 154
      x: 0
      y: 0
      width: 0
      height: 0
      offsetX: 0
      offsetY: 0
      advance: 0
      channel: 0
      kerning: 
    - index: 155
      x: 0
      y: 0
      width: 0
      height: 0
      offsetX: 0
      offsetY: 0
      advance: 0
      channel: 0
      kerning: 
    - index: 156
      x: 0
      y: 0
      width: 0
      height: 0
      offsetX: 0
      offsetY: 0
      advance: 0
      channel: 0
      kerning: 
    - index: 157
      x: 0
      y: 0
      width: 0
      height: 0
      offsetX: 0
      offsetY: 0
      advance: 0
      channel: 0
      kerning: 
    - index: 158
      x: 0
      y: 0
      width: 0
      height: 0
      offsetX: 0
      offsetY: 0
      advance: 0
      channel: 0
      kerning: 
    - index: 159
      x: 0
      y: 0
      width: 0
      height: 0
      offsetX: 0
      offsetY: 0
      advance: 0
      channel: 0
      kerning: 
    - index: 160
      x: 187
      y: 190
      width: 4
      height: 4
      offsetX: -1
      offsetY: 19
      advance: 4
      channel: 0
      kerning: 
    - index: 161
      x: 130
      y: 69
      width: 9
      height: 19
      offsetX: -1
      offsetY: 4
      advance: 5
      channel: 0
      kerning: 
    - index: 162
      x: 102
      y: 109
      width: 13
      height: 18
      offsetX: -1
      offsetY: 7
      advance: 10
      channel: 0
      kerning: 
    - index: 163
      x: 214
      y: 85
      width: 14
      height: 18
      offsetX: -1
      offsetY: 5
      advance: 10
      channel: 0
      kerning: 
    - index: 164
      x: 157
      y: 179
      width: 13
      height: 13
      offsetX: 0
      offsetY: 7
      advance: 11
      channel: 0
      kerning: 
    - index: 165
      x: 62
      y: 147
      width: 14
      height: 17
      offsetX: 0
      offsetY: 6
      advance: 11
      channel: 0
      kerning: 
    - index: 166
      x: 120
      y: 69
      width: 9
      height: 19
      offsetX: -1
      offsetY: 5
      advance: 5
      channel: 0
      kerning: 
    - index: 167
      x: 170
      y: 106
      width: 12
      height: 18
      offsetX: 0
      offsetY: 6
      advance: 9
      channel: 0
      kerning: 
    - index: 168
      x: 138
      y: 195
      width: 13
      height: 7
      offsetX: -1
      offsetY: 5
      advance: 10
      channel: 0
      kerning: 
    - index: 169
      x: 54
      y: 129
      width: 17
      height: 17
      offsetX: 0
      offsetY: 6
      advance: 14
      channel: 0
      kerning: 
    - index: 170
      x: 234
      y: 173
      width: 11
      height: 12
      offsetX: 0
      offsetY: 6
      advance: 9
      channel: 0
      kerning: 
    - index: 171
      x: 142
      y: 164
      width: 20
      height: 14
      offsetX: 0
      offsetY: 9
      advance: 18
      channel: 0
      kerning: 
    - index: 172
      x: 86
      y: 196
      width: 11
      height: 9
      offsetX: 0
      offsetY: 12
      advance: 9
      channel: 0
      kerning: 
    - index: 173
      x: 0
      y: 0
      width: 0
      height: 0
      offsetX: 0
      offsetY: 0
      advance: 0
      channel: 0
      kerning: 
    - index: 174
      x: 90
      y: 128
      width: 17
      height: 17
      offsetX: 0
      offsetY: 6
      advance: 14
      channel: 0
      kerning: 
    - index: 175
      x: 0
      y: 0
      width: 0
      height: 0
      offsetX: 0
      offsetY: 0
      advance: 0
      channel: 0
      kerning: 
    - index: 176
      x: 221
      y: 176
      width: 12
      height: 12
      offsetX: 0
      offsetY: 6
      advance: 9
      channel: 0
      kerning: 
    - index: 177
      x: 112
      y: 180
      width: 12
      height: 14
      offsetX: -1
      offsetY: 8
      advance: 9
      channel: 0
      kerning: 
    - index: 178
      x: 184
      y: 176
      width: 9
      height: 13
      offsetX: 0
      offsetY: 5
      advance: 6
      channel: 0
      kerning: 
    - index: 179
      x: 246
      y: 172
      width: 9
      height: 12
      offsetX: 0
      offsetY: 6
      advance: 7
      channel: 0
      kerning: 
    - index: 180
      x: 58
      y: 198
      width: 9
      height: 10
      offsetX: -1
      offsetY: 2
      advance: 6
      channel: 0
      kerning: 
    - index: 181
      x: 32
      y: 166
      width: 15
      height: 16
      offsetX: -1
      offsetY: 9
      advance: 12
      channel: 0
      kerning: 
    - index: 182
      x: 47
      y: 148
      width: 14
      height: 17
      offsetX: 0
      offsetY: 6
      advance: 12
      channel: 0
      kerning: 
    - index: 183
      x: 165
      y: 193
      width: 8
      height: 7
      offsetX: 0
      offsetY: 8
      advance: 5
      channel: 0
      kerning: 
    - index: 184
      x: 107
      y: 196
      width: 8
      height: 9
      offsetX: -1
      offsetY: 19
      advance: 5
      channel: 0
      kerning: 
    - index: 185
      x: 0
      y: 198
      width: 7
      height: 12
      offsetX: 0
      offsetY: 6
      advance: 5
      channel: 0
      kerning: 
    - index: 186
      x: 208
      y: 176
      width: 12
      height: 12
      offsetX: 0
      offsetY: 6
      advance: 9
      channel: 0
      kerning: 
    - index: 187
      x: 163
      y: 162
      width: 20
      height: 14
      offsetX: 0
      offsetY: 9
      advance: 18
      channel: 0
      kerning: 
    - index: 188
      x: 37
      y: 91
      width: 17
      height: 18
      offsetX: 0
      offsetY: 5
      advance: 15
      channel: 0
      kerning: 
    - index: 189
      x: 0
      y: 92
      width: 18
      height: 18
      offsetX: 0
      offsetY: 5
      advance: 15
      channel: 0
      kerning: 
    - index: 190
      x: 183
      y: 67
      width: 19
      height: 18
      offsetX: 0
      offsetY: 5
      advance: 17
      channel: 0
      kerning: 
    - index: 191
      x: 121
      y: 146
      width: 13
      height: 17
      offsetX: -1
      offsetY: 6
      advance: 10
      channel: 0
      kerning: 
    - index: 192
      x: 14
      y: 0
      width: 16
      height: 24
      offsetX: -1
      offsetY: -1
      advance: 12
      channel: 0
      kerning: 
    - index: 193
      x: 48
      y: 0
      width: 16
      height: 24
      offsetX: -1
      offsetY: -1
      advance: 12
      channel: 0
      kerning: 
    - index: 194
      x: 31
      y: 0
      width: 16
      height: 24
      offsetX: -1
      offsetY: -1
      advance: 12
      channel: 0
      kerning: 
    - index: 195
      x: 32
      y: 25
      width: 16
      height: 22
      offsetX: -1
      offsetY: 1
      advance: 12
      channel: 0
      kerning: 
    - index: 196
      x: 113
      y: 25
      width: 16
      height: 21
      offsetX: -1
      offsetY: 2
      advance: 12
      channel: 0
      kerning: 
    - index: 197
      x: 213
      y: 0
      width: 16
      height: 23
      offsetX: -1
      offsetY: 0
      advance: 12
      channel: 0
      kerning: 
    - index: 198
      x: 192
      y: 105
      width: 19
      height: 17
      offsetX: -1
      offsetY: 6
      advance: 15
      channel: 0
      kerning: 
    - index: 199
      x: 65
      y: 25
      width: 14
      height: 22
      offsetX: 0
      offsetY: 6
      advance: 11
      channel: 0
      kerning: 
    - index: 200
      x: 111
      y: 0
      width: 14
      height: 24
      offsetX: 0
      offsetY: -1
      advance: 10
      channel: 0
      kerning: 
    - index: 201
      x: 96
      y: 0
      width: 14
      height: 24
      offsetX: 0
      offsetY: -1
      advance: 10
      channel: 0
      kerning: 
    - index: 202
      x: 81
      y: 0
      width: 14
      height: 24
      offsetX: 0
      offsetY: -1
      advance: 10
      channel: 0
      kerning: 
    - index: 203
      x: 209
      y: 24
      width: 14
      height: 21
      offsetX: 0
      offsetY: 2
      advance: 10
      channel: 0
      kerning: 
    - index: 204
      x: 139
      y: 0
      width: 9
      height: 24
      offsetX: 0
      offsetY: -1
      advance: 7
      channel: 0
      kerning: 
    - index: 205
      x: 149
      y: 0
      width: 9
      height: 24
      offsetX: 0
      offsetY: -1
      advance: 7
      channel: 0
      kerning: 
    - index: 206
      x: 126
      y: 0
      width: 12
      height: 24
      offsetX: -2
      offsetY: -1
      advance: 7
      channel: 0
      kerning: 
    - index: 207
      x: 87
      y: 48
      width: 13
      height: 21
      offsetX: -3
      offsetY: 2
      advance: 7
      channel: 0
      kerning: 
    - index: 208
      x: 18
      y: 130
      width: 17
      height: 17
      offsetX: -1
      offsetY: 6
      advance: 14
      channel: 0
      kerning: 
    - index: 209
      x: 49
      y: 25
      width: 15
      height: 22
      offsetX: 0
      offsetY: 1
      advance: 13
      channel: 0
      kerning: 
    - index: 210
      x: 195
      y: 0
      width: 17
      height: 23
      offsetX: 0
      offsetY: -1
      advance: 14
      channel: 0
      kerning: 
    - index: 211
      x: 159
      y: 0
      width: 17
      height: 23
      offsetX: 0
      offsetY: -1
      advance: 14
      channel: 0
      kerning: 
    - index: 212
      x: 177
      y: 0
      width: 17
      height: 23
      offsetX: 0
      offsetY: -1
      advance: 14
      channel: 0
      kerning: 
    - index: 213
      x: 95
      y: 25
      width: 17
      height: 21
      offsetX: 0
      offsetY: 1
      advance: 14
      channel: 0
      kerning: 
    - index: 214
      x: 137
      y: 47
      width: 17
      height: 20
      offsetX: 0
      offsetY: 2
      advance: 14
      channel: 0
      kerning: 
    - index: 215
      x: 20
      y: 198
      width: 11
      height: 11
      offsetX: 0
      offsetY: 9
      advance: 9
      channel: 0
      kerning: 
    - index: 216
      x: 186
      y: 46
      width: 17
      height: 19
      offsetX: 0
      offsetY: 5
      advance: 14
      channel: 0
      kerning: 
    - index: 217
      x: 16
      y: 25
      width: 15
      height: 23
      offsetX: 0
      offsetY: -1
      advance: 12
      channel: 0
      kerning: 
    - index: 218
      x: 230
      y: 0
      width: 15
      height: 23
      offsetX: 0
      offsetY: -1
      advance: 12
      channel: 0
      kerning: 
    - index: 219
      x: 0
      y: 26
      width: 15
      height: 23
      offsetX: 0
      offsetY: -1
      advance: 12
      channel: 0
      kerning: 
    - index: 220
      x: 155
      y: 47
      width: 15
      height: 20
      offsetX: 0
      offsetY: 2
      advance: 12
      channel: 0
      kerning: 
    - index: 221
      x: 65
      y: 0
      width: 15
      height: 24
      offsetX: -1
      offsetY: -1
      advance: 10
      channel: 0
      kerning: 
    - index: 222
      x: 30
      y: 71
      width: 14
      height: 19
      offsetX: 0
      offsetY: 4
      advance: 11
      channel: 0
      kerning: 
    - index: 223
      x: 32
      y: 148
      width: 14
      height: 17
      offsetX: 0
      offsetY: 6
      advance: 12
      channel: 0
      kerning: 
    - index: 224
      x: 194
      y: 24
      width: 14
      height: 21
      offsetX: -1
      offsetY: 2
      advance: 11
      channel: 0
      kerning: 
    - index: 225
      x: 15
      y: 50
      width: 14
      height: 21
      offsetX: -1
      offsetY: 2
      advance: 11
      channel: 0
      kerning: 
    - index: 226
      x: 0
      y: 50
      width: 14
      height: 21
      offsetX: -1
      offsetY: 2
      advance: 11
      channel: 0
      kerning: 
    - index: 227
      x: 15
      y: 72
      width: 14
      height: 19
      offsetX: -1
      offsetY: 4
      advance: 11
      channel: 0
      kerning: 
    - index: 228
      x: 45
      y: 110
      width: 14
      height: 18
      offsetX: -1
      offsetY: 5
      advance: 11
      channel: 0
      kerning: 
    - index: 229
      x: 171
      y: 46
      width: 14
      height: 20
      offsetX: -1
      offsetY: 3
      advance: 11
      channel: 0
      kerning: 
    - index: 230
      x: 184
      y: 161
      width: 20
      height: 14
      offsetX: -1
      offsetY: 9
      advance: 17
      channel: 0
      kerning: 
    - index: 231
      x: 45
      y: 70
      width: 13
      height: 19
      offsetX: -1
      offsetY: 9
      advance: 9
      channel: 0
      kerning: 
    - index: 232
      x: 73
      y: 48
      width: 13
      height: 21
      offsetX: -1
      offsetY: 2
      advance: 10
      channel: 0
      kerning: 
    - index: 233
      x: 59
      y: 48
      width: 13
      height: 21
      offsetX: -1
      offsetY: 2
      advance: 10
      channel: 0
      kerning: 
    - index: 234
      x: 45
      y: 48
      width: 13
      height: 21
      offsetX: -1
      offsetY: 2
      advance: 10
      channel: 0
      kerning: 
    - index: 235
      x: 229
      y: 85
      width: 14
      height: 18
      offsetX: -1
      offsetY: 5
      advance: 10
      channel: 0
      kerning: 
    - index: 236
      x: 127
      y: 47
      width: 9
      height: 21
      offsetX: -1
      offsetY: 2
      advance: 5
      channel: 0
      kerning: 
    - index: 237
      x: 246
      y: 0
      width: 9
      height: 21
      offsetX: -1
      offsetY: 2
      advance: 5
      channel: 0
      kerning: 
    - index: 238
      x: 101
      y: 47
      width: 12
      height: 21
      offsetX: -2
      offsetY: 2
      advance: 5
      channel: 0
      kerning: 
    - index: 239
      x: 116
      y: 109
      width: 13
      height: 18
      offsetX: -3
      offsetY: 5
      advance: 5
      channel: 0
      kerning: 
    - index: 240
      x: 153
      y: 88
      width: 15
      height: 18
      offsetX: -1
      offsetY: 5
      advance: 12
      channel: 0
      kerning: 
    - index: 241
      x: 220
      y: 46
      width: 15
      height: 19
      offsetX: -1
      offsetY: 4
      advance: 12
      channel: 0
      kerning: 
    - index: 242
      x: 130
      y: 25
      width: 15
      height: 21
      offsetX: -1
      offsetY: 2
      advance: 12
      channel: 0
      kerning: 
    - index: 243
      x: 146
      y: 25
      width: 15
      height: 21
      offsetX: -1
      offsetY: 2
      advance: 12
      channel: 0
      kerning: 
    - index: 244
      x: 162
      y: 24
      width: 15
      height: 21
      offsetX: -1
      offsetY: 2
      advance: 12
      channel: 0
      kerning: 
    - index: 245
      x: 236
      y: 46
      width: 15
      height: 19
      offsetX: -1
      offsetY: 4
      advance: 12
      channel: 0
      kerning: 
    - index: 246
      x: 73
      y: 90
      width: 15
      height: 18
      offsetX: -1
      offsetY: 5
      advance: 12
      channel: 0
      kerning: 
    - index: 247
      x: 239
      y: 140
      width: 15
      height: 16
      offsetX: -1
      offsetY: 7
      advance: 12
      channel: 0
      kerning: 
    - index: 248
      x: 223
      y: 141
      width: 15
      height: 16
      offsetX: -1
      offsetY: 8
      advance: 12
      channel: 0
      kerning: 
    - index: 249
      x: 30
      y: 49
      width: 14
      height: 21
      offsetX: 0
      offsetY: 2
      advance: 11
      channel: 0
      kerning: 
    - index: 250
      x: 239
      y: 24
      width: 14
      height: 21
      offsetX: 0
      offsetY: 2
      advance: 11
      channel: 0
      kerning: 
    - index: 251
      x: 224
      y: 24
      width: 14
      height: 21
      offsetX: 0
      offsetY: 2
      advance: 11
      channel: 0
      kerning: 
    - index: 252
      x: 15
      y: 111
      width: 14
      height: 18
      offsetX: 0
      offsetY: 5
      advance: 11
      channel: 0
      kerning: 
    - index: 253
      x: 0
      y: 0
      width: 13
      height: 25
      offsetX: 0
      offsetY: 2
      advance: 10
      channel: 0
      kerning: 
    - index: 254
      x: 0
      y: 0
      width: 0
      height: 0
      offsetX: 0
      offsetY: 0
      advance: 0
      channel: 0
      kerning: 
    - index: 255
      x: 0
      y: 0
      width: 0
      height: 0
      offsetX: 0
      offsetY: 0
      advance: 0
      channel: 0
      kerning: 
    mSymbols: []
  mSpacingX: 0
  mSpacingY: 0
  mAtlas: {fileID: 11400000, guid: f95e07e3d350bf748b0c42b453a69d2e, type: 2}
  mReplacement: {fileID: 0}
--- !u!1002 &11400001
EditorExtensionImpl:
  serializedVersion: 6
--- !u!1001 &100100000
Prefab:
  m_ObjectHideFlags: 1
  serializedVersion: 2
  m_Modification:
    m_TransformParent: {fileID: 0}
    m_Modifications: []
    m_RemovedComponents: []
  m_ParentPrefab: {fileID: 0}
  m_RootGameObject: {fileID: 100000}
  m_IsPrefabParent: 1
  m_IsExploded: 1
--- !u!1002 &100100001
EditorExtensionImpl:
  serializedVersion: 6
